day-11/12
…
# A tibble: 1 × 12
  r.squared adj.r.squared sigma statistic  p.value    df logLik   AIC   BIC
      <dbl>         <dbl> <dbl>     <dbl>    <dbl> <dbl>  <dbl> <dbl> <dbl>
1     0.596         0.582  21.3      41.0 4.58e-21     4  -517. 1046. 1063.
# ℹ 3 more variables: deviance <dbl>, df.residual <int>, nobs <int>

#Interpret the model summary output (coefficients, R-squared, p-values) in plain language #The coefficients show how each factor affect ozone levels. Temp, solar, and summer increase ozone levels while wind decreases ozone levels. The R-squared value means that 59.6% of the variation in ozone is explained by the predicting variables. The p-value is extremely small (p-val = 4.576782e-21), therefore the relationship between ozone levels and the predicting variables are statistically significant.

#Part 5: Model Diagnostics

#Use broom::augment to suppliment the normalized data.frame with the fitted values and residuals.

(pred <- augment(model, normalized_air))

# A tibble: 116 × 11
     Temp   Solar.R    Wind Ozone Season_Summer .fitted   .resid   .hat .sigma
    <dbl>     <dbl>   <dbl> <int>         <dbl>   <dbl>    <dbl>  <dbl>  <dbl>
 1 -1.15   0.0462   -0.726     41         0.812   33.2    7.85   0.0443   21.4
 2 -0.621 -0.772    -0.556     36         0.812   36.0    0.0397 0.0316   21.4
 3 -0.410 -0.420     0.750     12         0.812   26.8  -14.8    0.0227   21.4
 4 -1.68   1.44      0.438     18         0.812   18.5   -0.547  0.0704   21.4
 5 -1.26   0.000743  1.40      28         0.812    7.89  20.1    0.0334   21.3
 6 -1.36   1.29     -0.385     23         0.812   32.0   -8.98   0.0657   21.4
 7 -1.99  -0.988     1.09      19         0.812   -5.61  24.6    0.0476   21.3
 8 -1.78  -1.90      2.88       8         0.812  -26.2   34.2    0.107    21.1
 9 -0.410  0.000743 -0.868      7         0.812   46.6  -39.6    0.0296   21.1
10 -0.938  0.797    -0.0731    16         0.812   33.1  -17.1    0.0329   21.4
# ℹ 106 more rows
# ℹ 2 more variables: .cooksd <dbl>, .std.resid <dbl>
…
